iter	Passed	Remaining
0	165	165625
1	189	94465
2	211	70422
3	232	57920
4	249	49648
5	278	46069
6	292	41492
7	308	38300
8	327	36084
9	341	33850
10	355	31998
11	376	31016
12	401	30453
13	419	29547
14	431	28343
15	456	28089
16	527	30513
17	538	29363
18	563	29104
19	592	29011
20	615	28711
21	628	27923
22	658	27960
23	675	27459
24	689	26879
25	697	26110
26	717	25866
27	745	25867
28	763	25571
29	780	25220
30	807	25244
31	821	24837
32	842	24700
33	856	24344
34	880	24279
35	931	24953
36	953	24818
37	976	24716
38	989	24374
39	1008	24208
40	1042	24375
41	1070	24425
42	1096	24395
43	1112	24182
44	1139	24183
45	1179	24456
46	1203	24403
47	1258	24964
48	1340	26011
49	1357	25798
50	1377	25631
51	1395	25438
52	1419	25365
53	1443	25288
54	1462	25120
55	1494	25199
56	1506	24916
57	1526	24798
58	1556	24820
59	1574	24667
60	1614	24850
61	1629	24659
62	1645	24467
63	1654	24199
64	1671	24049
65	1677	23736
66	1688	23518
67	1712	23476
68	1729	23339
69	1754	23315
70	1764	23088
71	1770	22823
72	1785	22675
73	1799	22523
74	1803	22240
75	1828	22231
76	1838	22034
77	1861	21999
78	1877	21893
79	1895	21794
80	1907	21645
81	1928	21584
82	1934	21368
83	1940	21157
84	1945	20940
85	1950	20729
86	1955	20520
87	1969	20407
88	1986	20333
89	1995	20173
90	2006	20038
91	2011	19849
92	2016	19669
93	2046	19728
94	2064	19668
95	2087	19656
96	2099	19541
97	2110	19427
98	2116	19264
99	2125	19128
100	2139	19041
101	2169	19102
102	2180	18988
103	2193	18899
104	2231	19022
105	2236	18864
106	2242	18713
107	2260	18668
108	2268	18547
109	2280	18453
110	2307	18477
111	2316	18366
112	2322	18230
113	2341	18197
114	2347	18063
115	2371	18072
116	2382	17980
117	2393	17890
118	2402	17784
119	2407	17652
120	2416	17557
121	2429	17485
122	2450	17474
123	2484	17552
124	2489	17427
125	2512	17431
126	2521	17331
127	2544	17335
128	2550	17223
129	2559	17128
130	2565	17017
131	2582	16978
132	2593	16906
133	2615	16900
134	2637	16899
135	2653	16860
136	2660	16759
137	2709	16921
138	2740	16976
139	2756	16934
140	2770	16876
141	2779	16794
142	2796	16761
143	2806	16680
144	2815	16600
145	2822	16510
146	2848	16529
147	2854	16429
148	2893	16524
149	2906	16468
150	2929	16470
151	2934	16371
152	2942	16291
153	2954	16230
154	2959	16135
155	2971	16078
156	2987	16041
157	2996	15967
158	3007	15905
159	3020	15855
160	3033	15806
161	3047	15766
162	3063	15732
163	3086	15733
164	3111	15747
165	3125	15700
166	3146	15697
167	3155	15626
168	3163	15553
169	3191	15581
170	3201	15518
171	3207	15439
172	3224	15412
173	3252	15438
174	3258	15359
175	3277	15344
176	3287	15283
177	3293	15209
178	3305	15159
179	3314	15100
180	3321	15028
181	3331	14975
182	3359	14999
183	3365	14925
184	3397	14969
185	3412	14932
186	3450	15002
187	3477	15021
188	3488	14970
189	3521	15014
190	3527	14940
191	3536	14883
192	3542	14813
193	3560	14791
194	3570	14739
195	3597	14757
196	3633	14812
197	3671	14869
198	3688	14846
199	3705	14820
200	3729	14827
201	3735	14755
202	3757	14751
203	3789	14786
204	3819	14811
205	3851	14846
206	3859	14783
207	3875	14757
208	3916	14824
209	3944	14838
210	3971	14849
211	4008	14900
212	4041	14930
213	4054	14890
214	4076	14883
215	4098	14876
216	4118	14859
217	4125	14797
218	4149	14799
219	4155	14734
220	4185	14752
221	4214	14770
222	4229	14736
223	4234	14670
224	4257	14665
225	4262	14599
226	4283	14588
227	4295	14545
228	4320	14546
229	4325	14481
230	4341	14452
231	4360	14434
232	4372	14392
233	4377	14329
234	4383	14269
235	4401	14248
236	4412	14206
237	4419	14148
238	4424	14088
239	4430	14028
240	4438	13978
241	4453	13950
242	4463	13904
243	4468	13846
244	4477	13799
245	4507	13815
246	4519	13776
247	4560	13828
248	4583	13823
249	4600	13801
250	4608	13753
251	4632	13749
252	4642	13708
253	4651	13660
254	4669	13642
255	4678	13596
256	4687	13552
257	4711	13549
258	4731	13537
259	4736	13481
260	4751	13453
261	4757	13399
262	4793	13433
263	4805	13397
264	4811	13345
265	4834	13341
266	4848	13311
267	4858	13270
268	4863	13217
269	4869	13165
270	4883	13135
271	4910	13141
272	4922	13108
273	4927	13056
274	4934	13008
275	4969	13036
276	4999	13049
277	5013	13020
278	5024	12985
279	5036	12950
280	5050	12923
281	5058	12880
282	5068	12840
283	5079	12806
284	5085	12757
285	5090	12707
286	5102	12675
287	5114	12643
288	5122	12601
289	5130	12559
290	5137	12517
291	5166	12527
292	5172	12480
293	5181	12442
294	5204	12437
295	5216	12407
296	5222	12361
297	5232	12327
298	5251	12312
299	5267	12290
300	5278	12257
301	5307	12268
302	5313	12223
303	5319	12177
304	5327	12140
305	5338	12106
306	5352	12081
307	5384	12097
308	5410	12099
309	5415	12054
310	5421	12011
311	5442	12000
312	5461	11987
313	5474	11960
314	5494	11947
315	5499	11904
316	5504	11860
317	5513	11824
318	5540	11828
319	5545	11784
320	5550	11741
321	5556	11699
322	5564	11663
323	5573	11627
324	5584	11598
325	5590	11557
326	5595	11515
327	5600	11473
328	5609	11440
329	5635	11441
330	5645	11409
331	5650	11369
332	5675	11368
333	5680	11327
334	5706	11327
335	5711	11287
336	5723	11259
337	5729	11221
338	5801	11312
339	5827	11312
340	5860	11325
341	5882	11317
342	5889	11280
343	5918	11285
344	5932	11263
345	5940	11229
346	5958	11213
347	5967	11180
348	6003	11199
349	6009	11160
350	6033	11155
351	6038	11116
352	6046	11082
353	6053	11046
354	6071	11031
355	6080	10999
356	6094	10977
357	6112	10961
358	6122	10931
359	6143	10922
360	6153	10892
361	6165	10865
362	6171	10829
363	6192	10820
364	6224	10828
365	6252	10830
366	6282	10835
367	6291	10805
368	6307	10785
369	6332	10783
370	6346	10759
371	6375	10763
372	6388	10738
373	6407	10725
374	6421	10702
375	6428	10667
376	6441	10644
377	6453	10619
378	6470	10602
379	6479	10571
380	6485	10537
381	6495	10508
382	6509	10486
383	6520	10459
384	6559	10477
385	6582	10471
386	6602	10458
387	6616	10435
388	6623	10403
389	6632	10373
390	6640	10343
391	6655	10323
392	6662	10290
393	6671	10261
394	6699	10260
395	6704	10225
396	6709	10190
397	6714	10156
398	6723	10126
399	6748	10122
400	6753	10087
401	6758	10053
402	6763	10019
403	6775	9995
404	6780	9962
405	6821	9979
406	6830	9951
407	6849	9937
408	6857	9909
409	6863	9876
410	6874	9852
411	6893	9838
412	6941	9866
413	6947	9833
414	6956	9806
415	6970	9785
416	6980	9759
417	6992	9735
418	6999	9705
419	7022	9698
420	7050	9695
421	7092	9713
422	7112	9701
423	7124	9678
424	7145	9667
425	7195	9695
426	7215	9682
427	7228	9659
428	7239	9635
429	7244	9603
430	7257	9580
431	7274	9564
432	7314	9577
433	7321	9547
434	7362	9563
435	7382	9550
436	7404	9539
437	7418	9518
438	7424	9488
439	7430	9457
440	7443	9435
441	7449	9405
442	7468	9390
443	7473	9359
444	7485	9335
445	7500	9316
446	7505	9285
447	7517	9262
448	7523	9232
449	7529	9202
450	7540	9178
451	7547	9150
452	7557	9126
453	7565	9098
454	7579	9078
455	7586	9050
456	7593	9022
457	7609	9004
458	7645	9011
459	7668	9002
460	7704	9008
461	7732	9004
462	7768	9009
463	7776	8983
464	7808	8984
465	7848	8993
466	7856	8967
467	7866	8942
468	7888	8930
469	7922	8933
470	7933	8910
471	7952	8896
472	7967	8877
473	7972	8847
474	7988	8829
475	8020	8829
476	8040	8816
477	8075	8819
478	8082	8791
479	8101	8776
480	8124	8765
481	8141	8749
482	8166	8741
483	8183	8724
484	8231	8741
485	8247	8722
486	8263	8704
487	8280	8687
488	8285	8658
489	8305	8644
490	8312	8617
491	8332	8603
492	8388	8626
493	8396	8600
494	8402	8572
495	8408	8544
496	8423	8524
497	8443	8510
498	8456	8490
499	8476	8476
500	8493	8459
501	8503	8436
502	8517	8415
503	8549	8414
504	8571	8401
505	8628	8423
506	8677	8438
507	8691	8417
508	8703	8395
509	8723	8381
510	8734	8358
511	8767	8356
512	8773	8328
513	8794	8315
514	8800	8288
515	8823	8276
516	8870	8287
517	8876	8259
518	8888	8237
519	8893	8209
520	8944	8223
521	8968	8212
522	9024	8230
523	9051	8222
524	9086	8220
525	9101	8201
526	9145	8208
527	9184	8210
528	9197	8189
529	9204	8162
530	9226	8149
531	9234	8123
532	9245	8100
533	9268	8088
534	9275	8061
535	9281	8034
536	9290	8010
537	9351	8030
538	9358	8003
539	9363	7976
540	9369	7948
541	9374	7921
542	9383	7897
543	9389	7870
544	9399	7847
545	9405	7820
546	9410	7793
547	9415	7766
548	9431	7747
549	9457	7737
550	9467	7715
551	9483	7696
552	9490	7671
553	9504	7651
554	9510	7625
555	9518	7601
556	9558	7601
557	9563	7575
558	9597	7571
559	9606	7548
560	9626	7532
561	9639	7512
562	9650	7491
563	9658	7466
564	9690	7461
565	9701	7439
566	9722	7425
567	9758	7421
568	9784	7411
569	9793	7388
570	9811	7371
571	9832	7357
572	9845	7336
573	9853	7313
574	9859	7287
575	9868	7264
576	9889	7250
577	9914	7238
578	9937	7225
579	9948	7204
580	9958	7182
581	9964	7156
582	9978	7136
583	9982	7111
584	9987	7085
585	9993	7060
586	10007	7041
587	10012	7015
588	10020	6992
589	10025	6966
590	10042	6949
591	10047	6924
592	10052	6899
593	10064	6879
594	10070	6854
595	10084	6835
596	10128	6836
597	10140	6816
598	10151	6795
599	10165	6777
600	10186	6762
601	10194	6740
602	10215	6725
603	10248	6719
604	10261	6699
605	10295	6694
606	10322	6683
607	10328	6658
608	10336	6636
609	10359	6623
610	10366	6599
611	10390	6587
612	10459	6603
613	10510	6607
614	10521	6586
615	10531	6564
616	10545	6545
617	10562	6529
618	10597	6522
619	10632	6516
620	10641	6494
621	10646	6470
622	10657	6449
623	10680	6435
624	10689	6413
625	10710	6398
626	10742	6390
627	10767	6377
628	10779	6357
629	10785	6334
630	10806	6319
631	10821	6301
632	10830	6279
633	10837	6256
634	10867	6246
635	10877	6225
636	10888	6205
637	10951	6213
638	10963	6193
639	10970	6170
640	10976	6147
641	10982	6124
642	10998	6106
643	11017	6090
644	11050	6082
645	11056	6058
646	11071	6040
647	11076	6016
648	11081	5993
649	11096	5975
650	11102	5951
651	11111	5930
652	11136	5917
653	11143	5895
654	11167	5882
655	11174	5859
656	11224	5859
657	11229	5836
658	11237	5814
659	11250	5795
660	11276	5783
661	11286	5762
662	11329	5758
663	11343	5739
664	11374	5730
665	11421	5727
666	11439	5711
667	11450	5690
668	11457	5668
669	11484	5656
670	11490	5633
671	11498	5612
672	11514	5594
673	11520	5572
674	11527	5550
675	11537	5529
676	11553	5512
677	11614	5516
678	11636	5501
679	11642	5479
680	11666	5464
681	11686	5449
682	11752	5454
683	11758	5432
684	11784	5419
685	11789	5396
686	11797	5374
687	11807	5354
688	11841	5345
689	11848	5323
690	11872	5309
691	11894	5294
692	11900	5271
693	11913	5252
694	11919	5230
695	11939	5214
696	11965	5201
697	11989	5187
698	12041	5185
699	12059	5168
700	12073	5149
701	12087	5131
702	12122	5121
703	12132	5101
704	12169	5092
705	12175	5070
706	12204	5057
707	12222	5040
708	12228	5019
709	12257	5006
710	12287	4994
711	12321	4983
712	12339	4966
713	12371	4955
714	12388	4937
715	12414	4924
716	12442	4910
717	12483	4903
718	12539	4900
719	12570	4888
720	12585	4870
721	12612	4856
722	12619	4834
723	12629	4814
724	12635	4792
725	12660	4778
726	12692	4766
727	12723	4753
728	12730	4732
729	12762	4720
730	12786	4705
731	12819	4693
732	12825	4671
733	12833	4650
734	12847	4632
735	12901	4627
736	12927	4613
737	12934	4592
738	12945	4572
739	12972	4557
740	13040	4558
741	13070	4544
742	13107	4533
743	13118	4513
744	13128	4493
745	13144	4475
746	13156	4456
747	13171	4437
748	13185	4418
749	13191	4397
750	13201	4377
751	13211	4356
752	13225	4338
753	13271	4329
754	13281	4309
755	13330	4302
756	13356	4287
757	13382	4272
758	13391	4252
759	13419	4237
760	13435	4219
761	13445	4199
762	13468	4183
763	13503	4171
764	13520	4153
765	13570	4145
766	13587	4127
767	13608	4111
768	13639	4097
769	13652	4078
770	13666	4059
771	13676	4039
772	13732	4032
773	13740	4012
774	13747	3991
775	13770	3974
776	13784	3956
777	13792	3935
778	13828	3923
779	13853	3907
780	13877	3891
781	13886	3871
782	13909	3854
783	13914	3833
784	13921	3812
785	13934	3793
786	13988	3785
787	13999	3766
788	14036	3753
789	14068	3739
790	14074	3718
791	14092	3700
792	14114	3684
793	14128	3665
794	14139	3646
795	14170	3631
796	14204	3617
797	14226	3601
798	14263	3588
799	14282	3570
800	14304	3553
801	14312	3533
802	14329	3515
803	14368	3502
804	14377	3482
805	14384	3462
806	14407	3445
807	14416	3425
808	14429	3406
809	14442	3387
810	14451	3367
811	14475	3351
812	14488	3332
813	14496	3312
814	14502	3291
815	14536	3277
816	14544	3257
817	14550	3237
818	14599	3226
819	14609	3206
820	14615	3186
821	14622	3166
822	14628	3146
823	14665	3132
824	14672	3112
825	14708	3098
826	14743	3084
827	14771	3068
828	14816	3056
829	14844	3040
830	14871	3024
831	14923	3013
832	14944	2996
833	14955	2976
834	14969	2958
835	15001	2942
836	15018	2924
837	15041	2907
838	15055	2889
839	15067	2869
840	15076	2850
841	15105	2834
842	15144	2820
843	15155	2801
844	15160	2780
845	15167	2760
846	15172	2740
847	15186	2722
848	15212	2705
849	15223	2686
850	15259	2671
851	15313	2660
852	15322	2640
853	15378	2629
854	15386	2609
855	15398	2590
856	15423	2573
857	15431	2553
858	15436	2533
859	15442	2513
860	15450	2494
861	15456	2474
862	15467	2455
863	15472	2435
864	15477	2415
865	15482	2395
866	15491	2376
867	15502	2357
868	15525	2340
869	15565	2325
870	15587	2308
871	15595	2289
872	15617	2271
873	15656	2257
874	15661	2237
875	15666	2217
876	15676	2198
877	15682	2179
878	15688	2159
879	15693	2139
880	15703	2121
881	15729	2104
882	15739	2085
883	15748	2066
884	15753	2047
885	15758	2027
886	15765	2008
887	15771	1989
888	15804	1973
889	15810	1954
890	15818	1935
891	15824	1915
892	15847	1898
893	15856	1880
894	15865	1861
895	15879	1843
896	15915	1827
897	15921	1808
898	15927	1789
899	15947	1771
900	15976	1755
901	16001	1738
902	16033	1722
903	16039	1703
904	16063	1686
905	16072	1667
906	16088	1649
907	16102	1631
908	16122	1614
909	16145	1596
910	16191	1581
911	16200	1563
912	16237	1547
913	16263	1530
914	16295	1513
915	16310	1495
916	16329	1478
917	16360	1461
918	16377	1443
919	16400	1426
920	16424	1408
921	16440	1390
922	16455	1372
923	16468	1354
924	16483	1336
925	16491	1317
926	16509	1300
927	16546	1283
928	16554	1265
929	16603	1249
930	16608	1230
931	16621	1212
932	16637	1194
933	16675	1178
934	16709	1161
935	16722	1143
936	16745	1125
937	16752	1107
938	16760	1088
939	16774	1070
940	16817	1054
941	16844	1037
942	16859	1019
943	16879	1001
944	16891	983
945	16913	965
946	16926	947
947	16934	928
948	16982	912
949	16989	894
950	16996	875
951	17011	857
952	17032	840
953	17063	822
954	17070	804
955	17077	785
956	17111	768
957	17137	751
958	17161	733
959	17202	716
960	17215	698
961	17223	680
962	17231	662
963	17244	643
964	17285	626
965	17300	608
966	17318	591
967	17324	572
968	17332	554
969	17340	536
970	17383	519
971	17392	501
972	17407	483
973	17434	465
974	17439	447
975	17454	429
976	17460	411
977	17470	393
978	17479	374
979	17487	356
980	17497	338
981	17517	321
982	17531	303
983	17541	285
984	17562	267
985	17572	249
986	17577	231
987	17617	213
988	17623	196
989	17644	178
990	17726	160
991	17766	143
992	17776	125
993	17792	107
994	17798	89
995	17810	71
996	17821	53
997	17874	35
998	17885	17
999	17900	0
